<?xml version="1.0" encoding="UTF-8"?>
<svg xmlns="http://www.w3.org/2000/svg" xmlns:xlink="http://www.w3.org/1999/xlink" width="914pt" height="165pt" viewBox="0 0 914 165" version="1.1">
<defs>
<g>
<symbol overflow="visible" id="glyph0-0">
<path style="stroke:none;" d="M 3.023438 -3.648438 L 3.023438 -10.394531 L 0.703125 -10.394531 L 0.703125 -12.152344 L 5.3125 -12.152344 L 5.3125 -3.648438 C 5.308594 -2.957031 5.414063 -2.46875 5.632813 -2.1875 C 5.84375 -1.898438 6.207031 -1.757813 6.71875 -1.757813 L 8.542969 -1.757813 L 8.542969 0 L 6.078125 0 C 4.984375 0 4.203125 -0.28125 3.734375 -0.84375 C 3.257813 -1.40625 3.023438 -2.339844 3.023438 -3.648438 Z M 3.023438 -3.648438 "/>
</symbol>
<symbol overflow="visible" id="glyph0-1">
<path style="stroke:none;" d="M 1.726563 -8.746094 L 6.257813 -8.746094 L 6.257813 -1.757813 L 9.097656 -1.757813 L 9.097656 0 L 1.117188 0 L 1.117188 -1.757813 L 3.96875 -1.757813 L 3.96875 -6.992188 L 1.726563 -6.992188 Z M 3.96875 -13.003906 L 6.257813 -13.003906 L 6.257813 -10.332031 L 3.96875 -10.332031 Z M 3.96875 -13.003906 "/>
</symbol>
<symbol overflow="visible" id="glyph0-2">
<path style="stroke:none;" d="M 7.742188 -8.472656 L 7.742188 -6.476563 C 7.316406 -6.742188 6.878906 -6.949219 6.425781 -7.089844 C 5.96875 -7.226563 5.511719 -7.292969 5.054688 -7.296875 C 4.542969 -7.292969 4.15625 -7.21875 3.898438 -7.074219 C 3.632813 -6.921875 3.503906 -6.703125 3.507813 -6.414063 C 3.503906 -5.996094 4.0625 -5.65625 5.179688 -5.398438 L 5.265625 -5.375 L 5.921875 -5.21875 C 6.753906 -5.019531 7.363281 -4.699219 7.75 -4.261719 C 8.136719 -3.816406 8.332031 -3.222656 8.332031 -2.476563 C 8.332031 -1.574219 8.035156 -0.898438 7.445313 -0.449219 C 6.855469 0 5.96875 0.222656 4.78125 0.226563 C 4.253906 0.222656 3.714844 0.175781 3.164063 0.0898438 C 2.609375 -0.00390625 2.046875 -0.136719 1.484375 -0.320313 L 1.484375 -2.320313 C 1.984375 -2.03125 2.5 -1.8125 3.027344 -1.664063 C 3.546875 -1.511719 4.054688 -1.433594 4.546875 -1.4375 C 5.082031 -1.433594 5.488281 -1.511719 5.765625 -1.671875 C 6.039063 -1.824219 6.175781 -2.050781 6.179688 -2.351563 C 6.175781 -2.640625 6.078125 -2.867188 5.886719 -3.023438 C 5.6875 -3.179688 5.222656 -3.34375 4.492188 -3.523438 L 3.859375 -3.664063 C 2.980469 -3.859375 2.34375 -4.171875 1.945313 -4.59375 C 1.542969 -5.015625 1.339844 -5.578125 1.34375 -6.289063 C 1.339844 -7.128906 1.644531 -7.785156 2.257813 -8.253906 C 2.863281 -8.71875 3.722656 -8.953125 4.828125 -8.957031 C 5.320313 -8.953125 5.8125 -8.914063 6.308594 -8.835938 C 6.796875 -8.753906 7.273438 -8.632813 7.742188 -8.472656 Z M 7.742188 -8.472656 "/>
</symbol>
<symbol overflow="visible" id="glyph0-3">
<path style="stroke:none;" d="M 5.390625 -11.230469 L 5.390625 -8.746094 L 8.378906 -8.746094 L 8.378906 -6.992188 L 5.390625 -6.992188 L 5.390625 -2.851563 C 5.390625 -2.457031 5.484375 -2.175781 5.675781 -2.011719 C 5.863281 -1.839844 6.179688 -1.757813 6.625 -1.757813 L 8.378906 -1.757813 L 8.378906 0 L 6.460938 0 C 5.144531 0 4.257813 -0.207031 3.796875 -0.628906 C 3.332031 -1.042969 3.097656 -1.820313 3.101563 -2.960938 L 3.101563 -6.992188 L 0.867188 -6.992188 L 0.867188 -8.746094 L 3.101563 -8.746094 L 3.101563 -11.230469 Z M 5.390625 -11.230469 "/>
</symbol>
<symbol overflow="visible" id="glyph0-4">
<path style="stroke:none;" d="M 8.605469 -0.429688 C 8.074219 -0.207031 7.535156 -0.046875 6.984375 0.0625 C 6.429688 0.167969 5.84375 0.222656 5.234375 0.226563 C 3.765625 0.222656 2.648438 -0.167969 1.878906 -0.949219 C 1.101563 -1.730469 0.714844 -2.859375 0.71875 -4.335938 C 0.714844 -5.761719 1.085938 -6.886719 1.835938 -7.714844 C 2.578125 -8.539063 3.59375 -8.953125 4.882813 -8.957031 C 6.175781 -8.953125 7.183594 -8.570313 7.898438 -7.804688 C 8.613281 -7.039063 8.96875 -5.957031 8.972656 -4.5625 L 8.972656 -3.632813 L 3.046875 -3.632813 C 3.050781 -2.945313 3.253906 -2.429688 3.65625 -2.09375 C 4.054688 -1.75 4.652344 -1.582031 5.453125 -1.585938 C 5.976563 -1.582031 6.496094 -1.65625 7.007813 -1.8125 C 7.515625 -1.960938 8.046875 -2.203125 8.605469 -2.53125 Z M 6.671875 -5.351563 C 6.660156 -5.953125 6.503906 -6.410156 6.207031 -6.722656 C 5.902344 -7.027344 5.460938 -7.183594 4.882813 -7.1875 C 4.351563 -7.183594 3.933594 -7.023438 3.625 -6.707031 C 3.308594 -6.382813 3.125 -5.929688 3.070313 -5.34375 Z M 6.671875 -5.351563 "/>
</symbol>
<symbol overflow="visible" id="glyph0-5">
<path style="stroke:none;" d="M 5.390625 -7.875 C 5.5625 -8.242188 5.78125 -8.511719 6.046875 -8.691406 C 6.3125 -8.863281 6.636719 -8.953125 7.023438 -8.957031 C 7.773438 -8.953125 8.292969 -8.691406 8.585938 -8.175781 C 8.871094 -7.652344 9.015625 -6.570313 9.019531 -4.929688 L 9.019531 0 L 7.148438 0 L 7.148438 -5.617188 C 7.148438 -6.265625 7.097656 -6.699219 7 -6.921875 C 6.898438 -7.136719 6.71875 -7.246094 6.460938 -7.25 C 6.199219 -7.246094 6.015625 -7.136719 5.914063 -6.914063 C 5.804688 -6.6875 5.753906 -6.253906 5.757813 -5.617188 L 5.757813 0 L 3.90625 0 L 3.90625 -5.617188 C 3.902344 -6.253906 3.851563 -6.6875 3.75 -6.914063 C 3.644531 -7.136719 3.460938 -7.246094 3.203125 -7.25 C 2.941406 -7.246094 2.761719 -7.136719 2.664063 -6.921875 C 2.5625 -6.699219 2.511719 -6.265625 2.515625 -5.617188 L 2.515625 0 L 0.640625 0 L 0.640625 -8.746094 L 2.304688 -8.746094 L 2.304688 -7.84375 C 2.429688 -8.183594 2.640625 -8.453125 2.929688 -8.65625 C 3.214844 -8.851563 3.535156 -8.953125 3.890625 -8.957031 C 4.242188 -8.953125 4.5625 -8.847656 4.859375 -8.640625 C 5.148438 -8.425781 5.328125 -8.171875 5.390625 -7.875 Z M 5.390625 -7.875 "/>
</symbol>
<symbol overflow="visible" id="glyph1-0">
<path style="stroke:none;" d="M 4.371094 -7.316406 L 4.371094 -4.542969 L 7.152344 -4.542969 L 7.152344 -3.480469 L 4.371094 -3.480469 L 4.371094 -0.707031 L 3.324219 -0.707031 L 3.324219 -3.480469 L 0.550781 -3.480469 L 0.550781 -4.542969 L 3.324219 -4.542969 L 3.324219 -7.316406 Z M 4.371094 -7.316406 "/>
</symbol>
<symbol overflow="visible" id="glyph1-1">
<path style="stroke:none;" d="M 1.597656 -6.996094 L 4.542969 -6.996094 L 4.542969 -0.894531 L 6.820313 -0.894531 L 6.820313 0 L 1.113281 0 L 1.113281 -0.894531 L 3.390625 -0.894531 L 3.390625 -6.101563 L 1.597656 -6.101563 Z M 3.390625 -9.71875 L 4.542969 -9.71875 L 4.542969 -8.265625 L 3.390625 -8.265625 Z M 3.390625 -9.71875 "/>
</symbol>
<symbol overflow="visible" id="glyph1-2">
<path style="stroke:none;" d="M 3.835938 -8.984375 L 3.835938 -6.996094 L 6.445313 -6.996094 L 6.445313 -6.101563 L 3.835938 -6.101563 L 3.835938 -2.304688 C 3.832031 -1.785156 3.929688 -1.425781 4.128906 -1.222656 C 4.320313 -1.015625 4.660156 -0.914063 5.152344 -0.917969 L 6.445313 -0.917969 L 6.445313 0 L 5.039063 0 C 4.175781 0 3.566406 -0.171875 3.214844 -0.515625 C 2.859375 -0.859375 2.683594 -1.453125 2.6875 -2.304688 L 2.6875 -6.101563 L 0.816406 -6.101563 L 0.816406 -6.996094 L 2.6875 -6.996094 L 2.6875 -8.984375 Z M 3.835938 -8.984375 "/>
</symbol>
<symbol overflow="visible" id="glyph1-3">
<path style="stroke:none;" d="M 6.945313 -3.785156 L 6.945313 -3.222656 L 1.96875 -3.222656 L 1.96875 -3.1875 C 1.96875 -2.421875 2.164063 -1.832031 2.5625 -1.417969 C 2.957031 -1 3.519531 -0.789063 4.246094 -0.792969 C 4.609375 -0.789063 4.992188 -0.847656 5.394531 -0.96875 C 5.792969 -1.082031 6.21875 -1.261719 6.675781 -1.5 L 6.675781 -0.355469 C 6.238281 -0.171875 5.820313 -0.0390625 5.414063 0.046875 C 5.007813 0.132813 4.613281 0.175781 4.234375 0.179688 C 3.144531 0.175781 2.296875 -0.148438 1.6875 -0.796875 C 1.074219 -1.445313 0.765625 -2.34375 0.769531 -3.492188 C 0.765625 -4.605469 1.066406 -5.496094 1.667969 -6.164063 C 2.265625 -6.828125 3.066406 -7.160156 4.066406 -7.164063 C 4.957031 -7.160156 5.65625 -6.859375 6.171875 -6.257813 C 6.683594 -5.652344 6.941406 -4.828125 6.945313 -3.785156 Z M 5.796875 -4.121094 C 5.777344 -4.792969 5.621094 -5.308594 5.320313 -5.660156 C 5.015625 -6.011719 4.578125 -6.1875 4.015625 -6.191406 C 3.460938 -6.1875 3.007813 -6.003906 2.648438 -5.640625 C 2.289063 -5.269531 2.074219 -4.761719 2.011719 -4.117188 Z M 5.796875 -4.121094 "/>
</symbol>
<symbol overflow="visible" id="glyph1-4">
<path style="stroke:none;" d="M 4.222656 -6.285156 C 4.359375 -6.582031 4.539063 -6.804688 4.761719 -6.949219 C 4.976563 -7.089844 5.242188 -7.160156 5.554688 -7.164063 C 6.117188 -7.160156 6.511719 -6.941406 6.742188 -6.511719 C 6.972656 -6.074219 7.089844 -5.257813 7.089844 -4.054688 L 7.089844 0 L 6.039063 0 L 6.039063 -4.003906 C 6.035156 -4.988281 5.980469 -5.601563 5.875 -5.84375 C 5.761719 -6.078125 5.5625 -6.199219 5.273438 -6.203125 C 4.9375 -6.199219 4.707031 -6.070313 4.585938 -5.816406 C 4.460938 -5.558594 4.398438 -4.953125 4.402344 -4.003906 L 4.402344 0 L 3.355469 0 L 3.355469 -4.003906 C 3.351563 -5 3.292969 -5.617188 3.175781 -5.851563 C 3.058594 -6.082031 2.84375 -6.199219 2.535156 -6.203125 C 2.230469 -6.199219 2.019531 -6.070313 1.902344 -5.816406 C 1.78125 -5.558594 1.722656 -4.953125 1.722656 -4.003906 L 1.722656 0 L 0.679688 0 L 0.679688 -6.996094 L 1.722656 -6.996094 L 1.722656 -6.398438 C 1.859375 -6.644531 2.03125 -6.832031 2.238281 -6.964844 C 2.441406 -7.09375 2.675781 -7.160156 2.941406 -7.164063 C 3.257813 -7.160156 3.519531 -7.085938 3.730469 -6.945313 C 3.9375 -6.796875 4.101563 -6.578125 4.222656 -6.285156 Z M 4.222656 -6.285156 "/>
</symbol>
<symbol overflow="visible" id="glyph1-5">
<path style="stroke:none;" d="M 3.054688 -6.640625 L 4.628906 -6.640625 L 4.628906 -4.746094 L 3.054688 -4.746094 Z M 3.054688 -1.90625 L 4.628906 -1.90625 L 4.628906 0 L 3.054688 0 Z M 3.054688 -1.90625 "/>
</symbol>
<symbol overflow="visible" id="glyph1-6">
<path style="stroke:none;" d=""/>
</symbol>
<symbol overflow="visible" id="glyph1-7">
<path style="stroke:none;" d="M 5.359375 -2.25 C 5.164063 -1.761719 4.921875 -1.117188 4.628906 -0.324219 C 4.214844 0.777344 3.9375 1.445313 3.796875 1.6875 C 3.605469 2.007813 3.363281 2.25 3.078125 2.414063 C 2.789063 2.578125 2.457031 2.660156 2.074219 2.660156 L 1.148438 2.660156 L 1.148438 1.699219 L 1.832031 1.699219 C 2.164063 1.699219 2.425781 1.601563 2.621094 1.40625 C 2.808594 1.210938 3.054688 0.707031 3.355469 -0.113281 L 0.648438 -6.996094 L 1.867188 -6.996094 L 3.941406 -1.523438 L 5.984375 -6.996094 L 7.203125 -6.996094 Z M 5.359375 -2.25 "/>
</symbol>
<symbol overflow="visible" id="glyph1-8">
<path style="stroke:none;" d="M 2.34375 -0.878906 L 2.34375 2.660156 L 1.1875 2.660156 L 1.1875 -6.996094 L 2.34375 -6.996094 L 2.34375 -6.101563 C 2.53125 -6.445313 2.785156 -6.710938 3.105469 -6.890625 C 3.425781 -7.070313 3.792969 -7.160156 4.210938 -7.164063 C 5.050781 -7.160156 5.714844 -6.832031 6.199219 -6.183594 C 6.679688 -5.527344 6.917969 -4.625 6.921875 -3.46875 C 6.917969 -2.328125 6.675781 -1.433594 6.195313 -0.789063 C 5.710938 -0.144531 5.050781 0.175781 4.210938 0.179688 C 3.785156 0.175781 3.414063 0.0898438 3.09375 -0.0898438 C 2.773438 -0.269531 2.523438 -0.535156 2.34375 -0.878906 Z M 5.714844 -3.492188 C 5.710938 -4.382813 5.570313 -5.054688 5.292969 -5.507813 C 5.007813 -5.960938 4.59375 -6.1875 4.042969 -6.191406 C 3.480469 -6.1875 3.054688 -5.960938 2.773438 -5.507813 C 2.484375 -5.050781 2.34375 -4.378906 2.34375 -3.492188 C 2.34375 -2.609375 2.484375 -1.9375 2.773438 -1.480469 C 3.054688 -1.019531 3.480469 -0.789063 4.042969 -0.792969 C 4.59375 -0.789063 5.007813 -1.015625 5.292969 -1.472656 C 5.570313 -1.925781 5.710938 -2.601563 5.714844 -3.492188 Z M 5.714844 -3.492188 "/>
</symbol>
<symbol overflow="visible" id="glyph1-9">
<path style="stroke:none;" d="M 2.492188 -8.289063 L 2.492188 -4.785156 L 3.953125 -4.785156 C 4.535156 -4.78125 4.988281 -4.933594 5.316406 -5.246094 C 5.640625 -5.550781 5.804688 -5.984375 5.808594 -6.539063 C 5.804688 -7.09375 5.644531 -7.523438 5.320313 -7.828125 C 4.996094 -8.132813 4.539063 -8.285156 3.953125 -8.289063 Z M 1.230469 -9.324219 L 3.953125 -9.324219 C 4.992188 -9.320313 5.78125 -9.085938 6.320313 -8.613281 C 6.855469 -8.140625 7.125 -7.449219 7.128906 -6.539063 C 7.125 -5.617188 6.855469 -4.921875 6.324219 -4.453125 C 5.785156 -3.980469 4.996094 -3.742188 3.953125 -3.746094 L 2.492188 -3.746094 L 2.492188 0 L 1.230469 0 Z M 1.230469 -9.324219 "/>
</symbol>
<symbol overflow="visible" id="glyph1-10">
<path style="stroke:none;" d="M 3.992188 -2.535156 C 3.988281 -2.015625 4.082031 -1.625 4.273438 -1.367188 C 4.460938 -1.101563 4.742188 -0.972656 5.117188 -0.972656 L 6.457031 -0.972656 L 6.457031 0 L 5.003906 0 C 4.316406 0 3.78125 -0.21875 3.40625 -0.660156 C 3.027344 -1.101563 2.839844 -1.726563 2.84375 -2.535156 L 2.84375 -8.890625 L 1 -8.890625 L 1 -9.789063 L 3.992188 -9.789063 Z M 3.992188 -2.535156 "/>
</symbol>
<symbol overflow="visible" id="glyph1-11">
<path style="stroke:none;" d="M 6.566406 -4.335938 L 6.566406 0 L 5.410156 0 L 5.410156 -4.335938 C 5.40625 -4.960938 5.296875 -5.421875 5.078125 -5.71875 C 4.855469 -6.015625 4.511719 -6.164063 4.042969 -6.164063 C 3.503906 -6.164063 3.089844 -5.972656 2.800781 -5.59375 C 2.511719 -5.210938 2.367188 -4.664063 2.367188 -3.953125 L 2.367188 0 L 1.21875 0 L 1.21875 -6.996094 L 2.367188 -6.996094 L 2.367188 -5.945313 C 2.570313 -6.34375 2.84375 -6.648438 3.195313 -6.855469 C 3.542969 -7.058594 3.960938 -7.160156 4.441406 -7.164063 C 5.152344 -7.160156 5.683594 -6.925781 6.035156 -6.460938 C 6.386719 -5.988281 6.5625 -5.28125 6.566406 -4.335938 Z M 6.566406 -4.335938 "/>
</symbol>
<symbol overflow="visible" id="glyph1-12">
<path style="stroke:none;" d="M 1.472656 -9.71875 L 2.660156 -9.71875 L 2.660156 -4.089844 L 5.679688 -6.996094 L 7.078125 -6.996094 L 4.324219 -4.359375 L 7.507813 0 L 6.101563 0 L 3.515625 -3.609375 L 2.660156 -2.804688 L 2.660156 0 L 1.472656 0 Z M 1.472656 -9.71875 "/>
</symbol>
<symbol overflow="visible" id="glyph1-13">
<path style="stroke:none;" d="M 6.078125 -6.753906 L 6.078125 -5.628906 C 5.746094 -5.816406 5.417969 -5.960938 5.085938 -6.058594 C 4.75 -6.152344 4.410156 -6.199219 4.066406 -6.203125 C 3.542969 -6.199219 3.152344 -6.113281 2.898438 -5.949219 C 2.640625 -5.777344 2.511719 -5.523438 2.515625 -5.179688 C 2.511719 -4.867188 2.609375 -4.632813 2.804688 -4.476563 C 2.996094 -4.320313 3.472656 -4.167969 4.234375 -4.027344 L 4.699219 -3.941406 C 5.269531 -3.828125 5.699219 -3.609375 5.992188 -3.289063 C 6.285156 -2.960938 6.433594 -2.539063 6.433594 -2.023438 C 6.433594 -1.328125 6.1875 -0.789063 5.695313 -0.402344 C 5.203125 -0.015625 4.519531 0.175781 3.648438 0.179688 C 3.300781 0.175781 2.9375 0.140625 2.558594 0.0703125 C 2.179688 0 1.769531 -0.109375 1.332031 -0.257813 L 1.332031 -1.441406 C 1.753906 -1.222656 2.164063 -1.054688 2.558594 -0.945313 C 2.949219 -0.832031 3.320313 -0.777344 3.671875 -0.78125 C 4.175781 -0.777344 4.570313 -0.882813 4.851563 -1.089844 C 5.132813 -1.292969 5.273438 -1.582031 5.273438 -1.957031 C 5.273438 -2.488281 4.761719 -2.855469 3.742188 -3.0625 L 3.691406 -3.074219 L 3.261719 -3.160156 C 2.59375 -3.285156 2.109375 -3.503906 1.808594 -3.8125 C 1.503906 -4.117188 1.351563 -4.535156 1.355469 -5.066406 C 1.351563 -5.734375 1.578125 -6.25 2.035156 -6.617188 C 2.488281 -6.976563 3.136719 -7.160156 3.980469 -7.164063 C 4.351563 -7.160156 4.710938 -7.125 5.058594 -7.058594 C 5.402344 -6.988281 5.742188 -6.886719 6.078125 -6.753906 Z M 6.078125 -6.753906 "/>
</symbol>
<symbol overflow="visible" id="glyph2-0">
<path style="stroke:none;" d="M 1.253906 -9.324219 L 2.953125 -9.324219 L 7.089844 -1.523438 L 7.089844 -9.324219 L 8.3125 -9.324219 L 8.3125 0 L 6.613281 0 L 2.480469 -7.800781 L 2.480469 0 L 1.253906 0 Z M 1.253906 -9.324219 "/>
</symbol>
<symbol overflow="visible" id="glyph2-1">
<path style="stroke:none;" d="M 1.113281 -9.324219 L 2.378906 -9.324219 L 2.378906 -3.660156 C 2.378906 -2.65625 2.558594 -1.9375 2.921875 -1.5 C 3.285156 -1.0625 3.871094 -0.84375 4.683594 -0.84375 C 5.488281 -0.84375 6.074219 -1.0625 6.441406 -1.5 C 6.800781 -1.9375 6.984375 -2.65625 6.984375 -3.660156 L 6.984375 -9.324219 L 8.25 -9.324219 L 8.25 -3.503906 C 8.25 -2.285156 7.949219 -1.367188 7.347656 -0.75 C 6.746094 -0.132813 5.855469 0.175781 4.683594 0.179688 C 3.503906 0.175781 2.617188 -0.132813 2.015625 -0.75 C 1.414063 -1.367188 1.113281 -2.285156 1.113281 -3.503906 Z M 1.113281 -9.324219 "/>
</symbol>
<symbol overflow="visible" id="glyph2-2">
<path style="stroke:none;" d="M 1.253906 -9.324219 L 2.515625 -9.324219 L 2.515625 -1.0625 L 7.058594 -1.0625 L 7.058594 0 L 1.253906 0 Z M 1.253906 -9.324219 "/>
</symbol>
</g>
</defs>
<g id="surface16138">
<rect x="0" y="0" width="914" height="165" style="fill:rgb(100%,100%,100%);fill-opacity:1;stroke:none;"/>
<path style="fill-rule:evenodd;fill:rgb(100%,100%,100%);fill-opacity:1;stroke-width:0.1;stroke-linecap:butt;stroke-linejoin:miter;stroke:rgb(0%,0%,0%);stroke-opacity:1;stroke-miterlimit:10;" d="M 7.35 4.369922 L 14.009961 4.369922 L 14.009961 5.769922 L 7.35 5.769922 Z M 7.35 4.369922 " transform="matrix(20,0,0,20,-146,1)"/>
<g style="fill:rgb(0%,0%,0%);fill-opacity:1;">
  <use xlink:href="#glyph0-0" x="29.085938" y="107.398438"/>
  <use xlink:href="#glyph0-1" x="38.714844" y="107.398438"/>
  <use xlink:href="#glyph0-2" x="48.34375" y="107.398438"/>
  <use xlink:href="#glyph0-3" x="57.972656" y="107.398438"/>
  <use xlink:href="#glyph0-1" x="67.601563" y="107.398438"/>
  <use xlink:href="#glyph0-3" x="77.230469" y="107.398438"/>
  <use xlink:href="#glyph0-4" x="86.859375" y="107.398438"/>
  <use xlink:href="#glyph0-5" x="96.488281" y="107.398438"/>
</g>
<path style="fill-rule:evenodd;fill:rgb(100%,100%,100%);fill-opacity:1;stroke-width:0.1;stroke-linecap:butt;stroke-linejoin:miter;stroke:rgb(0%,0%,0%);stroke-opacity:1;stroke-miterlimit:10;" d="M 7.35 5.769922 L 14.009961 5.769922 L 14.009961 7.569922 L 7.35 7.569922 Z M 7.35 5.769922 " transform="matrix(20,0,0,20,-146,1)"/>
<g style="fill:rgb(0%,0%,0%);fill-opacity:1;">
  <use xlink:href="#glyph1-0" x="4" y="130.398438"/>
  <use xlink:href="#glyph1-1" x="11.695313" y="130.398438"/>
  <use xlink:href="#glyph1-2" x="19.390625" y="130.398438"/>
  <use xlink:href="#glyph1-3" x="27.085938" y="130.398438"/>
  <use xlink:href="#glyph1-4" x="34.78125" y="130.398438"/>
  <use xlink:href="#glyph1-5" x="42.476563" y="130.398438"/>
  <use xlink:href="#glyph1-6" x="50.171875" y="130.398438"/>
  <use xlink:href="#glyph1-2" x="57.867188" y="130.398438"/>
  <use xlink:href="#glyph1-7" x="65.5625" y="130.398438"/>
  <use xlink:href="#glyph1-8" x="73.257813" y="130.398438"/>
  <use xlink:href="#glyph1-3" x="80.953125" y="130.398438"/>
</g>
<g style="fill:rgb(0%,0%,0%);fill-opacity:1;">
  <use xlink:href="#glyph1-0" x="4" y="146.398438"/>
  <use xlink:href="#glyph1-9" x="11.695313" y="146.398438"/>
  <use xlink:href="#glyph1-10" x="19.390625" y="146.398438"/>
  <use xlink:href="#glyph1-1" x="27.085938" y="146.398438"/>
  <use xlink:href="#glyph1-11" x="34.78125" y="146.398438"/>
  <use xlink:href="#glyph1-12" x="42.476563" y="146.398438"/>
  <use xlink:href="#glyph1-5" x="50.171875" y="146.398438"/>
  <use xlink:href="#glyph1-6" x="57.867188" y="146.398438"/>
  <use xlink:href="#glyph1-10" x="65.5625" y="146.398438"/>
  <use xlink:href="#glyph1-1" x="73.257813" y="146.398438"/>
  <use xlink:href="#glyph1-13" x="80.953125" y="146.398438"/>
  <use xlink:href="#glyph1-2" x="88.648438" y="146.398438"/>
  <use xlink:href="#glyph1-1" x="96.34375" y="146.398438"/>
  <use xlink:href="#glyph1-2" x="104.039063" y="146.398438"/>
  <use xlink:href="#glyph1-3" x="111.734375" y="146.398438"/>
  <use xlink:href="#glyph1-4" x="119.429688" y="146.398438"/>
</g>
<path style="fill-rule:evenodd;fill:rgb(100%,100%,100%);fill-opacity:1;stroke-width:0.1;stroke-linecap:butt;stroke-linejoin:miter;stroke:rgb(0%,0%,0%);stroke-opacity:1;stroke-miterlimit:10;" d="M 7.35 7.569922 L 14.009961 7.569922 L 14.009961 7.969922 L 7.35 7.969922 Z M 7.35 7.569922 " transform="matrix(20,0,0,20,-146,1)"/>
<path style="fill-rule:evenodd;fill:rgb(100%,100%,100%);fill-opacity:1;stroke-width:0.1;stroke-linecap:butt;stroke-linejoin:miter;stroke:rgb(0%,0%,0%);stroke-opacity:1;stroke-miterlimit:10;" d="M 19.125 4.269922 L 25.784961 4.269922 L 25.784961 5.669922 L 19.125 5.669922 Z M 19.125 4.269922 " transform="matrix(20,0,0,20,-146,1)"/>
<g style="fill:rgb(0%,0%,0%);fill-opacity:1;">
  <use xlink:href="#glyph0-0" x="264.585938" y="105.398438"/>
  <use xlink:href="#glyph0-1" x="274.214844" y="105.398438"/>
  <use xlink:href="#glyph0-2" x="283.84375" y="105.398438"/>
  <use xlink:href="#glyph0-3" x="293.472656" y="105.398438"/>
  <use xlink:href="#glyph0-1" x="303.101563" y="105.398438"/>
  <use xlink:href="#glyph0-3" x="312.730469" y="105.398438"/>
  <use xlink:href="#glyph0-4" x="322.359375" y="105.398438"/>
  <use xlink:href="#glyph0-5" x="331.988281" y="105.398438"/>
</g>
<path style="fill-rule:evenodd;fill:rgb(100%,100%,100%);fill-opacity:1;stroke-width:0.1;stroke-linecap:butt;stroke-linejoin:miter;stroke:rgb(0%,0%,0%);stroke-opacity:1;stroke-miterlimit:10;" d="M 19.125 5.669922 L 25.784961 5.669922 L 25.784961 7.469922 L 19.125 7.469922 Z M 19.125 5.669922 " transform="matrix(20,0,0,20,-146,1)"/>
<g style="fill:rgb(0%,0%,0%);fill-opacity:1;">
  <use xlink:href="#glyph1-0" x="239.5" y="128.398438"/>
  <use xlink:href="#glyph1-1" x="247.195313" y="128.398438"/>
  <use xlink:href="#glyph1-2" x="254.890625" y="128.398438"/>
  <use xlink:href="#glyph1-3" x="262.585938" y="128.398438"/>
  <use xlink:href="#glyph1-4" x="270.28125" y="128.398438"/>
  <use xlink:href="#glyph1-5" x="277.976563" y="128.398438"/>
  <use xlink:href="#glyph1-6" x="285.671875" y="128.398438"/>
  <use xlink:href="#glyph1-2" x="293.367188" y="128.398438"/>
  <use xlink:href="#glyph1-7" x="301.0625" y="128.398438"/>
  <use xlink:href="#glyph1-8" x="308.757813" y="128.398438"/>
  <use xlink:href="#glyph1-3" x="316.453125" y="128.398438"/>
</g>
<g style="fill:rgb(0%,0%,0%);fill-opacity:1;">
  <use xlink:href="#glyph1-0" x="239.5" y="144.398438"/>
  <use xlink:href="#glyph1-9" x="247.195313" y="144.398438"/>
  <use xlink:href="#glyph1-10" x="254.890625" y="144.398438"/>
  <use xlink:href="#glyph1-1" x="262.585938" y="144.398438"/>
  <use xlink:href="#glyph1-11" x="270.28125" y="144.398438"/>
  <use xlink:href="#glyph1-12" x="277.976563" y="144.398438"/>
  <use xlink:href="#glyph1-5" x="285.671875" y="144.398438"/>
  <use xlink:href="#glyph1-6" x="293.367188" y="144.398438"/>
  <use xlink:href="#glyph1-10" x="301.0625" y="144.398438"/>
  <use xlink:href="#glyph1-1" x="308.757813" y="144.398438"/>
  <use xlink:href="#glyph1-13" x="316.453125" y="144.398438"/>
  <use xlink:href="#glyph1-2" x="324.148438" y="144.398438"/>
  <use xlink:href="#glyph1-1" x="331.84375" y="144.398438"/>
  <use xlink:href="#glyph1-2" x="339.539063" y="144.398438"/>
  <use xlink:href="#glyph1-3" x="347.234375" y="144.398438"/>
  <use xlink:href="#glyph1-4" x="354.929688" y="144.398438"/>
</g>
<path style="fill-rule:evenodd;fill:rgb(100%,100%,100%);fill-opacity:1;stroke-width:0.1;stroke-linecap:butt;stroke-linejoin:miter;stroke:rgb(0%,0%,0%);stroke-opacity:1;stroke-miterlimit:10;" d="M 19.125 7.469922 L 25.784961 7.469922 L 25.784961 7.869922 L 19.125 7.869922 Z M 19.125 7.469922 " transform="matrix(20,0,0,20,-146,1)"/>
<path style="fill-rule:evenodd;fill:rgb(100%,100%,100%);fill-opacity:1;stroke-width:0.1;stroke-linecap:butt;stroke-linejoin:miter;stroke:rgb(0%,0%,0%);stroke-opacity:1;stroke-miterlimit:10;" d="M 29.075 4.569922 L 35.734961 4.569922 L 35.734961 5.969922 L 29.075 5.969922 Z M 29.075 4.569922 " transform="matrix(20,0,0,20,-146,1)"/>
<g style="fill:rgb(0%,0%,0%);fill-opacity:1;">
  <use xlink:href="#glyph0-0" x="463.585938" y="111.398438"/>
  <use xlink:href="#glyph0-1" x="473.214844" y="111.398438"/>
  <use xlink:href="#glyph0-2" x="482.84375" y="111.398438"/>
  <use xlink:href="#glyph0-3" x="492.472656" y="111.398438"/>
  <use xlink:href="#glyph0-1" x="502.101563" y="111.398438"/>
  <use xlink:href="#glyph0-3" x="511.730469" y="111.398438"/>
  <use xlink:href="#glyph0-4" x="521.359375" y="111.398438"/>
  <use xlink:href="#glyph0-5" x="530.988281" y="111.398438"/>
</g>
<path style="fill-rule:evenodd;fill:rgb(100%,100%,100%);fill-opacity:1;stroke-width:0.1;stroke-linecap:butt;stroke-linejoin:miter;stroke:rgb(0%,0%,0%);stroke-opacity:1;stroke-miterlimit:10;" d="M 29.075 5.969922 L 35.734961 5.969922 L 35.734961 7.769922 L 29.075 7.769922 Z M 29.075 5.969922 " transform="matrix(20,0,0,20,-146,1)"/>
<g style="fill:rgb(0%,0%,0%);fill-opacity:1;">
  <use xlink:href="#glyph1-0" x="438.5" y="134.398438"/>
  <use xlink:href="#glyph1-1" x="446.195313" y="134.398438"/>
  <use xlink:href="#glyph1-2" x="453.890625" y="134.398438"/>
  <use xlink:href="#glyph1-3" x="461.585938" y="134.398438"/>
  <use xlink:href="#glyph1-4" x="469.28125" y="134.398438"/>
  <use xlink:href="#glyph1-5" x="476.976563" y="134.398438"/>
  <use xlink:href="#glyph1-6" x="484.671875" y="134.398438"/>
  <use xlink:href="#glyph1-2" x="492.367188" y="134.398438"/>
  <use xlink:href="#glyph1-7" x="500.0625" y="134.398438"/>
  <use xlink:href="#glyph1-8" x="507.757813" y="134.398438"/>
  <use xlink:href="#glyph1-3" x="515.453125" y="134.398438"/>
</g>
<g style="fill:rgb(0%,0%,0%);fill-opacity:1;">
  <use xlink:href="#glyph1-0" x="438.5" y="150.398438"/>
  <use xlink:href="#glyph1-9" x="446.195313" y="150.398438"/>
  <use xlink:href="#glyph1-10" x="453.890625" y="150.398438"/>
  <use xlink:href="#glyph1-1" x="461.585938" y="150.398438"/>
  <use xlink:href="#glyph1-11" x="469.28125" y="150.398438"/>
  <use xlink:href="#glyph1-12" x="476.976563" y="150.398438"/>
  <use xlink:href="#glyph1-5" x="484.671875" y="150.398438"/>
  <use xlink:href="#glyph1-6" x="492.367188" y="150.398438"/>
  <use xlink:href="#glyph1-10" x="500.0625" y="150.398438"/>
  <use xlink:href="#glyph1-1" x="507.757813" y="150.398438"/>
  <use xlink:href="#glyph1-13" x="515.453125" y="150.398438"/>
  <use xlink:href="#glyph1-2" x="523.148438" y="150.398438"/>
  <use xlink:href="#glyph1-1" x="530.84375" y="150.398438"/>
  <use xlink:href="#glyph1-2" x="538.539063" y="150.398438"/>
  <use xlink:href="#glyph1-3" x="546.234375" y="150.398438"/>
  <use xlink:href="#glyph1-4" x="553.929688" y="150.398438"/>
</g>
<path style="fill-rule:evenodd;fill:rgb(100%,100%,100%);fill-opacity:1;stroke-width:0.1;stroke-linecap:butt;stroke-linejoin:miter;stroke:rgb(0%,0%,0%);stroke-opacity:1;stroke-miterlimit:10;" d="M 29.075 7.769922 L 35.734961 7.769922 L 35.734961 8.169922 L 29.075 8.169922 Z M 29.075 7.769922 " transform="matrix(20,0,0,20,-146,1)"/>
<path style="fill-rule:evenodd;fill:rgb(100%,100%,100%);fill-opacity:1;stroke-width:0.1;stroke-linecap:butt;stroke-linejoin:miter;stroke:rgb(0%,0%,0%);stroke-opacity:1;stroke-miterlimit:10;" d="M 49.45 6.15 L 52.45 6.15 C 52.726172 6.15 52.95 6.373828 52.95 6.65 L 52.95 7.45 C 52.95 7.726172 52.726172 7.95 52.45 7.95 L 49.45 7.95 C 49.173828 7.95 48.95 7.726172 48.95 7.45 L 48.95 6.65 C 48.95 6.373828 49.173828 6.15 49.45 6.15 " transform="matrix(20,0,0,20,-146,1)"/>
<g style="fill:rgb(0%,0%,0%);fill-opacity:1;">
  <use xlink:href="#glyph2-0" x="856.417969" y="145.898438"/>
  <use xlink:href="#glyph2-1" x="865.988281" y="145.898438"/>
  <use xlink:href="#glyph2-2" x="875.34375" y="145.898438"/>
  <use xlink:href="#glyph2-2" x="882.472656" y="145.898438"/>
</g>
<path style="fill:none;stroke-width:0.1;stroke-linecap:butt;stroke-linejoin:miter;stroke:rgb(0%,0%,0%);stroke-opacity:1;stroke-miterlimit:10;" d="M 14.009961 7.069922 L 16.567578 7.069922 L 16.567578 4.969922 L 18.901367 4.969922 " transform="matrix(20,0,0,20,-146,1)"/>
<path style="fill:none;stroke-width:0.1;stroke-linecap:butt;stroke-linejoin:miter;stroke:rgb(0%,0%,0%);stroke-opacity:1;stroke-miterlimit:10;" d="M 18.513281 5.219922 L 19.013281 4.969922 L 18.513281 4.719922 " transform="matrix(20,0,0,20,-146,1)"/>
<path style="fill:none;stroke-width:0.1;stroke-linecap:butt;stroke-linejoin:miter;stroke:rgb(0%,0%,0%);stroke-opacity:1;stroke-miterlimit:10;" d="M 25.784961 6.969922 L 27.430078 6.969922 L 27.430078 5.269922 L 28.851367 5.269922 " transform="matrix(20,0,0,20,-146,1)"/>
<path style="fill:none;stroke-width:0.1;stroke-linecap:butt;stroke-linejoin:miter;stroke:rgb(0%,0%,0%);stroke-opacity:1;stroke-miterlimit:10;" d="M 28.463281 5.519922 L 28.963281 5.269922 L 28.463281 5.019922 " transform="matrix(20,0,0,20,-146,1)"/>
<path style="fill-rule:evenodd;fill:rgb(100%,100%,100%);fill-opacity:1;stroke-width:0.1;stroke-linecap:butt;stroke-linejoin:miter;stroke:rgb(0%,100%,0%);stroke-opacity:1;stroke-miterlimit:10;" d="M 38 0 L 44.659961 0 L 44.659961 1.4 L 38 1.4 Z M 38 0 " transform="matrix(20,0,0,20,-146,1)"/>
<g style="fill:rgb(0%,0%,0%);fill-opacity:1;">
  <use xlink:href="#glyph0-0" x="642.085938" y="20"/>
  <use xlink:href="#glyph0-1" x="651.714844" y="20"/>
  <use xlink:href="#glyph0-2" x="661.34375" y="20"/>
  <use xlink:href="#glyph0-3" x="670.972656" y="20"/>
  <use xlink:href="#glyph0-1" x="680.601563" y="20"/>
  <use xlink:href="#glyph0-3" x="690.230469" y="20"/>
  <use xlink:href="#glyph0-4" x="699.859375" y="20"/>
  <use xlink:href="#glyph0-5" x="709.488281" y="20"/>
</g>
<path style="fill-rule:evenodd;fill:rgb(100%,100%,100%);fill-opacity:1;stroke-width:0.1;stroke-linecap:butt;stroke-linejoin:miter;stroke:rgb(0%,100%,0%);stroke-opacity:1;stroke-miterlimit:10;" d="M 38 1.4 L 44.659961 1.4 L 44.659961 3.2 L 38 3.2 Z M 38 1.4 " transform="matrix(20,0,0,20,-146,1)"/>
<g style="fill:rgb(0%,0%,0%);fill-opacity:1;">
  <use xlink:href="#glyph1-0" x="617" y="43"/>
  <use xlink:href="#glyph1-1" x="624.695313" y="43"/>
  <use xlink:href="#glyph1-2" x="632.390625" y="43"/>
  <use xlink:href="#glyph1-3" x="640.085938" y="43"/>
  <use xlink:href="#glyph1-4" x="647.78125" y="43"/>
  <use xlink:href="#glyph1-5" x="655.476563" y="43"/>
  <use xlink:href="#glyph1-6" x="663.171875" y="43"/>
  <use xlink:href="#glyph1-2" x="670.867188" y="43"/>
  <use xlink:href="#glyph1-7" x="678.5625" y="43"/>
  <use xlink:href="#glyph1-8" x="686.257813" y="43"/>
  <use xlink:href="#glyph1-3" x="693.953125" y="43"/>
</g>
<g style="fill:rgb(0%,0%,0%);fill-opacity:1;">
  <use xlink:href="#glyph1-0" x="617" y="59"/>
  <use xlink:href="#glyph1-9" x="624.695313" y="59"/>
  <use xlink:href="#glyph1-10" x="632.390625" y="59"/>
  <use xlink:href="#glyph1-1" x="640.085938" y="59"/>
  <use xlink:href="#glyph1-11" x="647.78125" y="59"/>
  <use xlink:href="#glyph1-12" x="655.476563" y="59"/>
  <use xlink:href="#glyph1-5" x="663.171875" y="59"/>
  <use xlink:href="#glyph1-6" x="670.867188" y="59"/>
  <use xlink:href="#glyph1-10" x="678.5625" y="59"/>
  <use xlink:href="#glyph1-1" x="686.257813" y="59"/>
  <use xlink:href="#glyph1-13" x="693.953125" y="59"/>
  <use xlink:href="#glyph1-2" x="701.648438" y="59"/>
  <use xlink:href="#glyph1-1" x="709.34375" y="59"/>
  <use xlink:href="#glyph1-2" x="717.039063" y="59"/>
  <use xlink:href="#glyph1-3" x="724.734375" y="59"/>
  <use xlink:href="#glyph1-4" x="732.429688" y="59"/>
</g>
<path style="fill-rule:evenodd;fill:rgb(100%,100%,100%);fill-opacity:1;stroke-width:0.1;stroke-linecap:butt;stroke-linejoin:miter;stroke:rgb(0%,100%,0%);stroke-opacity:1;stroke-miterlimit:10;" d="M 38 3.2 L 44.659961 3.2 L 44.659961 3.6 L 38 3.6 Z M 38 3.2 " transform="matrix(20,0,0,20,-146,1)"/>
<path style="fill:none;stroke-width:0.1;stroke-linecap:butt;stroke-linejoin:miter;stroke:rgb(0%,100%,0%);stroke-opacity:1;stroke-miterlimit:10;" d="M 35.734961 7.269922 L 36.867578 7.269922 L 36.867578 0.7 L 37.776367 0.7 " transform="matrix(20,0,0,20,-146,1)"/>
<path style="fill:none;stroke-width:0.1;stroke-linecap:butt;stroke-linejoin:miter;stroke:rgb(0%,100%,0%);stroke-opacity:1;stroke-miterlimit:10;" d="M 37.388281 0.95 L 37.888281 0.7 L 37.388281 0.45 " transform="matrix(20,0,0,20,-146,1)"/>
<path style="fill:none;stroke-width:0.1;stroke-linecap:butt;stroke-linejoin:miter;stroke:rgb(0%,100%,0%);stroke-opacity:1;stroke-miterlimit:10;" d="M 46.009961 0.45 L 46.009961 3.3 L 50.95 3.3 L 50.95 5.926367 " transform="matrix(20,0,0,20,-146,1)"/>
<path style="fill:none;stroke-width:0.1;stroke-linecap:butt;stroke-linejoin:miter;stroke:rgb(0%,100%,0%);stroke-opacity:1;stroke-miterlimit:10;" d="M 50.7 5.538281 L 50.95 6.038281 L 51.2 5.538281 " transform="matrix(20,0,0,20,-146,1)"/>
<path style="fill:none;stroke-width:0.1;stroke-linecap:butt;stroke-linejoin:miter;stroke:rgb(100%,0%,0%);stroke-opacity:1;stroke-miterlimit:10;" d="M 36 7 L 42.475 7 L 42.475 7.05 L 48.726367 7.05 " transform="matrix(20,0,0,20,-146,1)"/>
<path style="fill:none;stroke-width:0.1;stroke-linecap:butt;stroke-linejoin:miter;stroke:rgb(100%,0%,0%);stroke-opacity:1;stroke-miterlimit:10;" d="M 48.338281 7.3 L 48.838281 7.05 L 48.338281 6.8 " transform="matrix(20,0,0,20,-146,1)"/>
</g>
</svg>
